[
    [
        [
            "Ленинградский пр., 37к6",
            55.755826, 
            37.6173, 
            "<div class='map_info'><div><h3>Ленинградский пр., 37к6</h3><p>Рейтинг <b>4.50</b><br /><span>463 оценок</span></p><p>Время работы:<br/>пн.-пт.: 10-20, сб., вс.: 10-19.</p><p>Итоговая цена: <strong>5700 Р</strong></p><button class='btn-primary'>Записаться</button><a href='' class='star'>В избранное</a></div><div><h3>Ленинградский пр., 37к6</h3><p>Рейтинг <b>4.50</b><br /><span>463 оценок</span></p><p>Время работы:<br/>пн.-пт.: 10-20, сб., вс.: 10-19.</p><p>Итоговая цена: <strong>5700 Р</strong></p><button class='btn-primary'>Записаться</button><a href='' class='star'>В избранное</a></div></div>"
        ],
        [
            "Ленинградский пр., 37к6",
            55.855826, 
            37.4173, 
            "<div class='map_info'><h3>Ленинградский пр., 37к6</h3><p>Рейтинг <b>4.50</b><br /><span>463 оценок</span></p><p>Время работы:<br/>пн.-пт.: 10-20, сб., вс.: 10-19.</p><p>Итоговая цена: <strong>5700 Р</strong></p><button class='btn-primary'>Записаться</button><a href='' class='star'>В избранное</a></div></div>"
        ],
        [
            "Ленинградский пр., 37к6",
            55.655826, 
            37.6573, 
            "<div class='map_info'><h3>Ленинградский пр., 37к6</h3><p>Рейтинг <b>4.50</b><br /><span>463 оценок</span></p><p>Время работы:<br/>пн.-пт.: 10-20, сб., вс.: 10-19.</p><p>Итоговая цена: <strong>5700 Р</strong></p><button class='btn-primary'>Записаться</button><a href='' class='star'>В избранное</a></div></div>"
        ],
        [
            "Ленинградский пр., 37к6",
            55.825826, 
            37.5773, 
            "<div class='map_info'><h3>Ленинградский пр., 37к6</h3><p>Рейтинг <b>4.50</b><br /><span>463 оценок</span></p><p>Время работы:<br/>пн.-пт.: 10-20, сб., вс.: 10-19.</p><p>Итоговая цена: <strong>5700 Р</strong></p><button class='btn-primary'>Записаться</button><a href='' class='star'>В избранное</a></div></div>"
        ]
    ]
]